{
  "connection": "default",
  "collectionName": "product",
  "info": {
    "name": "product",
    "description": ""
  },
  "options": {
    "timestamps": true
  },
  "attributes": {
    "name": {
      "default": "",
      "type": "string"
    },
    "type": {
      "default": "",
      "type": "enumeration",
      "required": true,
      "enum": [
        "...",
        "City Profile Report",
        "Interactive City Profile",
        "City Fact Sheet",
        "Datasets",
        "Urban Baseline"
      ]
    },
    "document": {
      "model": "file",
      "via": "related",
      "plugin": "upload",
      "required": true
    },
    "image": {
      "model": "file",
      "via": "related",
      "plugin": "upload",
      "required": false
    },
    "city": {
      "model": "city",
      "via": "products"
    },
    "description": {
      "default": "",
      "type": "text"
    },
    "language": {
      "default": "",
      "type": "enumeration",
      "required": true,
      "enum": [
        "...",
        "en",
        "ar"
      ]
    }
  }
}