{
  "connection": "default",
  "collectionName": "toolkit",
  "info": {
    "name": "toolkit",
    "description": ""
  },
  "options": {
    "timestamps": true
  },
  "attributes": {
    "name": {
      "default": "",
      "type": "string"
    },
    "type": {
      "enum": [
        "...",
        "use",
        "adapt",
        "collect",
        "analyse",
        "methodology"
      ],
      "default": "",
      "type": "enumeration",
      "required": true
    },
    "document": {
      "model": "file",
      "via": "related",
      "plugin": "upload",
      "required": true
    },
    "tooltip": {
      "default": "",
      "type": "text"
    }
  }
}