{
  "routes": [
    {
      "method": "GET",
      "path": "/toolkits/getToolkitProduct/:type",
      "handler": "Toolkit.getToolkitProduct",
      "config": {
        "policies": ["global.isApi"]
      }
    }
  ]
}
